<?xml version="1.0" standalone="no"?>
<!DOCTYPE svg PUBLIC "-//W3C//DTD SVG 1.1//EN" "http://www.w3.org/Graphics/SVG/1.1/DTD/svg11.dtd" >
<svg xmlns="http://www.w3.org/2000/svg">
<metadata>Generated by IcoMoon</metadata>
<defs>
<font id="icomoon" horiz-adv-x="1024">
<font-face units-per-em="1024" ascent="960" descent="-64" />
<missing-glyph horiz-adv-x="1024" />
<glyph unicode="&#x20;" d="" horiz-adv-x="512" />
<glyph unicode="&#xe600;" d="M983.040 752.998c-34.714-15.411-71.936-25.754-111.053-30.464 39.936 23.91 70.605 61.798 84.992 106.906-37.325-22.118-78.694-38.246-122.675-46.899-35.277 37.581-85.504 61.030-141.107 61.030-106.752 0-193.28-86.528-193.28-193.229 0-15.155 1.69-29.901 5.018-44.032-160.614 8.038-303.053 84.992-398.336 201.933-16.691-28.518-26.266-61.747-26.266-97.178 0-67.072 34.15-126.208 86.016-160.87-31.693 1.024-61.491 9.677-87.552 24.166 0-0.819 0-1.587 0-2.406 0-93.645 66.662-171.725 155.034-189.542-16.179-4.403-33.28-6.758-50.944-6.758-12.442 0-24.525 1.178-36.352 3.43 24.576-76.8 96-132.659 180.531-134.195-66.15-51.866-149.453-82.739-240.026-82.739-15.616 0-30.976 0.922-46.080 2.714 85.504-54.835 187.085-86.835 296.294-86.835 355.482 0 549.888 294.502 549.888 549.939 0 8.346-0.154 16.691-0.563 24.986 37.786 27.238 70.502 61.286 96.461 100.045z" />
<glyph unicode="&#xe601;" d="M768 761.395h-146.227c-17.306 0-36.608-22.733-36.608-53.197v-105.574h182.835v-150.528h-182.835v-452.096h-172.646v452.045h-156.518v150.579h156.518v88.576c0 127.027 88.166 230.4 209.203 230.4h146.278v-160.205z" />
<glyph unicode="&#xe602;" d="M441.139 295.526c-26.88-140.954-59.699-276.122-156.979-346.726-30.003 213.094 44.083 373.094 78.49 542.976-58.675 98.816 7.066 297.574 130.867 248.576 152.32-60.262-131.891-367.258 58.88-405.606 199.219-40.038 280.525 345.6 157.030 470.989-178.483 181.146-519.578 4.198-477.594-255.027 10.189-63.386 75.674-82.637 26.163-170.086-114.227 25.293-148.326 115.405-143.923 235.52 7.066 196.557 176.64 334.182 346.726 353.229 215.142 24.115 417.024-78.95 444.826-281.293 31.386-228.352-97.024-475.699-327.117-457.882-62.31 4.762-88.474 35.635-137.37 65.331z" />
<glyph unicode="&#xe603;" d="M778.286 136v370.286h-77.143q11.429-36 11.429-74.857 0-72-36.571-132.857t-99.429-96.286-137.143-35.429q-112.571 0-192.571 77.429t-80 187.143q0 38.857 11.429 74.857h-80.571v-370.286q0-14.857 10-24.857t24.857-10h610.857q14.286 0 24.571 10t10.286 24.857zM616 440.571q0 70.857-51.714 120.857t-124.857 50q-72.571 0-124.286-50t-51.714-120.857 51.714-120.857 124.286-50q73.143 0 124.857 50t51.714 120.857zM778.286 646.286v94.286q0 16-11.429 27.714t-28 11.714h-99.429q-16.571 0-28-11.714t-11.429-27.714v-94.286q0-16.571 11.429-28t28-11.429h99.429q16.571 0 28 11.429t11.429 28zM877.714 765.143v-652.571q0-46.286-33.143-79.429t-79.429-33.143h-652.571q-46.286 0-79.429 33.143t-33.143 79.429v652.571q0 46.286 33.143 79.429t79.429 33.143h652.571q46.286 0 79.429-33.143t33.143-79.429z" horiz-adv-x="878" />
<glyph unicode="&#xe604;" d="M819.2 512h-614.4c-28.262 0-51.2-22.938-51.2-51.2s22.938-51.2 51.2-51.2h614.4c28.314 0 51.2 22.938 51.2 51.2s-22.886 51.2-51.2 51.2zM204.8 614.4h614.4c28.314 0 51.2 22.938 51.2 51.2s-22.886 51.2-51.2 51.2h-614.4c-28.262 0-51.2-22.938-51.2-51.2s22.938-51.2 51.2-51.2zM819.2 307.2h-614.4c-28.262 0-51.2-22.886-51.2-51.2s22.938-51.2 51.2-51.2h614.4c28.314 0 51.2 22.886 51.2 51.2s-22.886 51.2-51.2 51.2z" />
<glyph unicode="&#xe605;" d="M898.304 180.838l-193.485 193.485c29.184 47.974 45.978 104.192 45.978 164.454 0 174.899-151.603 326.502-326.554 326.502-174.899 0-316.723-141.824-316.723-316.723 0-174.95 151.552-326.554 326.502-326.554 58.163 0 112.64 15.77 159.488 43.162l194.509-194.56c19.098-19.046 49.92-19.046 68.915 0l48.282 48.23c18.995 19.046 12.083 43.008-6.912 62.003zM205.005 548.557c0 121.088 98.15 219.29 219.238 219.29 121.139 0 229.069-107.93 229.069-229.069s-98.15-219.29-219.29-219.29-229.018 107.93-229.018 229.069z" />
<glyph unicode="&#xe606;" d="M734.669 299.418l-141.21 161.382 141.21 161.382c24.013 24.013 24.013 62.925 0 86.886-24.013 23.962-62.925 23.962-86.886 0l-135.782-155.187-135.731 155.136c-24.013 24.013-62.925 24.013-86.886 0-23.962-24.013-23.962-62.925 0-86.886l141.158-161.331-141.21-161.382c-23.962-24.013-23.962-62.822 0-86.784 24.013-24.013 62.925-24.013 86.886 0l135.782 155.085 135.731-155.085c24.013-24.013 62.925-24.013 86.886 0s24.013 62.771 0.051 86.784z" />
<glyph unicode="&#xe607;" d="M101.888 686.643c0-76.442 25.549-131.686 75.878-164.096 41.216-26.573 89.088-30.566 113.971-30.566 6.042 0 10.854 0.256 14.234 0.461 0 0-7.885-51.354 30.208-102.195l-1.741 0.051c-65.997 0-281.293-13.824-281.293-190.822 0-180.070 197.734-189.184 237.363-189.184 3.123 0 4.915 0.051 4.915 0.051 0.461 0 3.277-0.102 8.090-0.102 25.446 0 91.238 3.174 152.371 32.922 79.258 38.451 119.501 105.421 119.501 198.912 0 90.368-61.235 144.128-105.984 183.45-27.29 23.962-50.893 44.646-50.893 64.768 0 20.48 17.203 35.891 39.014 55.398 35.226 31.539 68.506 76.442 68.506 161.331 0 74.65-9.677 124.723-69.325 156.467 6.246 3.174 28.211 5.478 39.117 7.014 32.307 4.403 79.565 9.421 79.565 35.789v5.069h-235.418c-2.355-0.051-238.080-8.806-238.080-224.717zM481.946 225.178c4.506-71.987-57.088-125.133-149.555-131.84-93.901-6.912-171.264 35.379-175.77 107.366-2.15 34.56 13.005 68.403 42.752 95.386 30.208 27.29 71.578 44.134 116.685 47.514 5.325 0.307 10.598 0.563 15.872 0.563 86.886 0 145.766-51.098 150.016-118.989zM420.454 735.949c23.091-81.254-11.776-166.195-67.328-181.862-6.4-1.792-13.005-2.714-19.661-2.714-50.944 0-101.376 51.507-120.064 122.47-10.445 39.885-9.626 74.701 2.355 108.237 11.776 32.922 32.922 55.245 59.546 62.72 6.4 1.843 13.056 2.714 19.712 2.714 61.44 0 100.966-25.498 125.44-111.565zM817.203 559.002v153.6h-97.28v-153.6h-153.6v-97.28h153.6v-153.6h97.28v153.6h153.6v97.28h-153.6z" />
<glyph unicode="&#xe608;" d="M292.571 219.428q0 30.286-21.429 51.714t-51.714 21.429-51.714-21.429-21.429-51.714 21.429-51.714 51.714-21.429 51.714 21.429 21.429 51.714zM493.143 165.714q-7.429 132.571-101.143 226.286t-226.286 101.143q-8 0.571-13.714-5.143t-5.714-13.143v-73.143q0-7.429 4.857-12.571t12.286-5.714q88-6.286 150.857-69.143t69.143-150.857q0.571-7.429 5.714-12.286t12.571-4.857h73.143q7.429 0 13.143 5.714t5.143 13.714zM712.571 165.143q-2.857 88-32 170t-79.714 148.571-117.143 117.143-148.571 79.714-170 32q-8 0.571-13.143-5.143-5.714-5.714-5.714-13.143v-73.143q0-7.429 5.143-12.571t12.571-5.714q116.571-4 216-63.714t159.143-159.143 63.714-216q0.571-7.429 5.714-12.571t12.571-5.143h73.143q7.429 0 13.143 5.714 6.286 5.143 5.143 13.143zM877.714 713.143v-548.571q0-68-48.286-116.286t-116.286-48.286h-548.571q-68 0-116.286 48.286t-48.286 116.286v548.571q0 68 48.286 116.286t116.286 48.286h548.571q68 0 116.286-48.286t48.286-116.286z" horiz-adv-x="878" />
<glyph unicode="&#xe609;" d="M716.749 696.32l0.051-471.040-409.6 235.52z" />
<glyph unicode="&#xe60a;" d="M307.251 696.32l-0.051-471.040 409.6 235.52z" />
</font></defs></svg>